<?xml version="1.0" standalone="no"?>
<!DOCTYPE svg PUBLIC "-//W3C//DTD SVG 20010904//EN"
 "http://www.w3.org/TR/2001/REC-SVG-20010904/DTD/svg10.dtd">
<svg version="1.0" xmlns="http://www.w3.org/2000/svg"
 width="400.000000pt" height="400.000000pt" viewBox="0 0 400.000000 400.000000"
 preserveAspectRatio="xMidYMid meet">
<metadata>
Created by potrace 1.11, written by Peter Selinger 2001-2013
</metadata>
<g transform="translate(0.000000,400.000000) scale(0.100000,-0.100000)"
fill="#000000" stroke="none">
<path d="M0 2000 l0 -2000 2000 0 2000 0 0 2000 0 2000 -2000 0 -2000 0 0
-2000z m1990 1920 c394 -27 651 -117 839 -295 126 -119 203 -260 247 -450 15
-63 19 -118 18 -260 -1 -215 -16 -283 -95 -445 -45 -90 -64 -116 -143 -195
-50 -50 -112 -105 -137 -121 l-47 -30 46 -25 c267 -140 440 -347 502 -599 41
-166 37 -433 -10 -616 -43 -167 -102 -276 -210 -384 -157 -158 -422 -254 -850
-307 -122 -15 -221 -18 -630 -17 -387 0 -927 16 -936 27 -1 1 -5 43 -8 94 l-7
91 93 22 93 21 33 477 c32 465 33 494 33 1147 0 655 -1 681 -33 1142 l-33 472
-93 21 -93 22 7 91 c3 51 8 93 9 95 2 2 654 19 985 25 74 1 167 4 205 5 39 1
135 -3 215 -8z"/>
<path d="M1552 3466 c-56 -7 -105 -16 -109 -20 -4 -4 -20 -188 -35 -409 -28
-411 -35 -711 -19 -722 6 -3 94 -8 198 -12 367 -11 584 36 716 157 105 96 149
223 150 430 1 314 -124 487 -408 561 -102 26 -344 34 -493 15z"/>
<path d="M1480 1891 l-95 -6 -3 -180 c-3 -175 44 -1022 58 -1045 19 -31 509
-48 640 -22 166 33 293 94 378 182 113 118 168 327 143 546 -35 299 -170 439
-491 506 -103 21 -441 32 -630 19z"/>
</g>
</svg>
